{
    "rooms": ["Konfitura", "Marmolada", "Dżem"],
    "slots": [
        {
            "id": 1,
            "start": "08:00",
            "end": "09:10"
        },
        {
            "id": 2,
            "start": "09:10",
            "end": "09:30"
        },
        {
            "id": 3,
            "start": "09:30",
            "end": "10:20"
        },
        {
            "id": 4,
            "start": "10:20",
            "end": "10:40"
        },
        {
            "id": 5,
            "start": "10:40",
            "end": "11:30"
        }
    ],
    "schedule": [
        {
            "slotId": 1,
            "presentations": [
                {
                    "room": "Konfitura",
                    "presentation": {
                        "title": "Rejestracja i kawa"
                    }
                },
                {
                    "room": "Marmolada",
                    "presentation": {
                        "title": "Rejestracja i kawa"
                    }
                },
                {
                    "room": "Dżem",
                    "presentation": {
                        "title": "Rejestracja i kawa"
                    }
                }
            ]
        },
        {
            "slotId": 2,
            "presentations": [
                {
                    "room": "Konfitura",
                    "presentation": {
                        "title": "Rozpoczęcie"
                    }
                },
                {
                    "room": "Marmolada",
                    "presentation": {
                        "title": "-"
                    }
                },
                {
                    "room": "Dżem",
                    "presentation": {
                        "title": "-"
                    }
                }
            ]
        },
        {
            "slotId": 3,
            "presentations": [
                {
                    "room": "Konfitura",
                    "presentation": {
                        "id": 3,
                        "title": "Architektura to nie bzdura",
                        "speaker": {
                            "id": 1,
                            "firstName": "Paweł",
                            "lastName": "Szulc"
                        }
                    }
                },
                {
                    "room": "Marmolada",
                    "presentation": {
                        "id": 5,
                        "title": "Jak udawać że  nie mamy bazy danych",
                        "speaker": {
                            "id": 3,
                            "firstName": "Maciej",
                            "lastName": "Próchniak"
                        }
                    }
                },
                {
                    "room": "Dżem",
                    "presentation": {
                        "id": 7,
                        "title": "Masz już dość bycia szambonurkiem? Czyli o tym, co robić, aby praca w projekcie \"utrzymaniowym\" dawała satysfakcję",
                        "speaker": {
                            "id": 5,
                            "firstName": "Joanna",
                            "lastName": "Siemińska"
                        }
                    }
                }
            ]
        },
        {
            "slotId": 4,
            "presentations": [
                {
                    "room": "Konfitura",
                    "presentation": {
                        "title": "Przerwa"
                    }
                },
                {
                    "room": "Marmolada",
                    "presentation": {
                        "title": "Przerwa"
                    }
                },
                {
                    "room": "Dżem",
                    "presentation": {
                        "title": "Przerwa"
                    }
                }
            ]
        },
        {
            "slotId": 5,
            "presentations": [
                {
                    "room": "Konfitura",
                    "presentation": {
                        "id": 4,
                        "title": "Co Piszczy w Javie",
                        "speaker": {
                            "id": 2,
                            "firstName": "Kuba",
                            "lastName": "Kubryński"
                        }
                    }
                },
                {
                    "room": "Marmolada",
                    "presentation": {
                        "id": 6,
                        "title": "Przerwań pisać asercje, zacznij walidować!",
                        "speaker": {
                            "id": 4,
                            "firstName": "Jacek",
                            "lastName": "Kiliański"
                        }
                    }
                },
                {
                    "room": "Dżem",
                    "presentation": {
                        "id": 8,
                        "title": "Jak znaleźć porządek w chaosie, czyli MapReduce w dobie Internetu",
                        "speaker": {
                            "id": 6,
                            "firstName": "Monika",
                            "lastName": "Nawrot"
                        }
                    }
                }
            ]
        }
    ]
}